................
----------------------------------------------------------------------
Ran 16 tests in 11.396s

OK
Name             Stmts   Miss Branch BrPart  Cover   Missing
------------------------------------------------------------
Collatz.py          32      4     14      1    89%   41-43, 63
TestCollatz.py      70      0      2      0   100%
------------------------------------------------------------
TOTAL              102      4     16      1    96%
