1 10 20
100 200 125
201 210 89
900 1000 174
25 100 119
12 34 112
57 930 179
98 461 144
47 273 128
1 78 116
3 8943 262
56 59 33
78 4739 238
444 4444 238
555 5555 238
666 6666 262
888 8888 262
999 9999 262
12 122 119
13 144 122
14 1555 182
15 55555 340
45 6543 262
1111 11111 268
234 5532 238
10 200 125
30 4000 238
56 6000 238
234 2345 183
2345 23555 282
12 133 122
13 1456 182
1356 38593 324
9090 9091 141
9092 9093 141
456 459 129
457 3096 217
1 9999 262
2 8888 262
3 7777 262
4 6666 262
5 55555 340
6 4444 238
7 3333 217
2 1111 179
1 22222 279
674 4859 238
9843 47395 324
2 22222 279
3435 59343 340
516 1242 182
415 42343 324
589 32452 308
88 8898 262
87 8787 262
86 8686 262
85 8585 262
84 8484 262
83 8383 262
82 8282 262
81 8181 262
80 8080 262
79 7979 262
76 7676 262
75 7575 262
74 7474 262
73 7373 262
72 7272 262
71 7171 262
70 7070 262
69 6969 262
68 6868 262
67 6767 262
66 66666 340
65 6565 262
64 6464 262
63 6363 262
62 6262 262
61 6161 238
60 6060 238
59 5959 238
54 5454 238
53 5353 238
52 5252 238
51 5151 238
50 5050 238
49 4949 238
48 4848 238
47 4747 238
46 4646 238
45 4545 238
44 4444 238
43 4343 238
42 4242 238
41 4141 238
40 4040 238
39 3939 238
38 3838 238
37 3737 238
36 3636 217
35 3535 217
34 3434 217
33 3333 217
32 3232 217
31 3131 217
30 3030 217
29 2929 217
2929 29 217
10 10 7
1 999999 525
10 888888 525
100 777777 509
50 500000 449
600000 300000 470
450000 500000 444
1000 900000 525
123456 234567 443
300 300 17
456 456 36
600 2 144
865 2356 183
