....................
----------------------------------------------------------------------
Ran 20 tests in 9.700s

OK
Name             Stmts   Miss Branch BrPart  Cover   Missing
------------------------------------------------------------
Collatz.py          54      0     20      0   100%   
TestCollatz.py      79      0      0      0   100%
------------------------------------------------------------
TOTAL              133      0     20      0   100%