1 10 20
100 200 125
201 210 89
900 1000 174
497 537 124
1 1 1
789 1000 179
89 400 144
1000 1999 182
43431 50911 314
31690 47881 324
74938 93713 351
26359 82872 351
59992 67698 335
45123 99735 351
78249 83984 338
221 5168 238

7967 82837 351
42673 99141 351
83607 83866 289
3318 96677 351
37627 49167 314
80533 97462 333
80455 90023 333
11514 50036 324
56979 83449 351
44517 48823 314
58694 74418 335
49794 84101 351
71967 89735 351
36966 87201 351
81492 83350 320
30957 83331 351
27225 35387 311
52035 73954 340
90960 91696 333
82779 88047 333
51229 66835 340
39962 64875 340
48877 82308 351
54472 60397 322
8261 48109 324
80634 95085 333
5546 28599 308
50533 80180 351
55082 98690 351
65453 93392 351
51395 92410 351
5514 77075 351
94045 96833 328
38006 96717 351
31743 88597 351
22184 74077 340
86965 91311 333
7204 47268 324
5265 45147 324
14560 60295 340
15163 52426 324
87613 93282 333
29916 50840 324
23006 73837 340
27061 75320 340
90450 94539 333
52764 72817 335
46973 67955 340
13964 93339 351
67792 88323 351
32479 61369 340
24853 83109 351
68389 70820 312
28250 89910 351
41779 69214 340
54571 62508 335
29208 40393 324
11612 16636 276
65674 82794 351
49871 60331 340
15208 39461 324
42604 90204 351
37700 47008 314
26932 34440 311
14796 97710 351
23143 75421 340
95931 98452 297
58664 70108 335
25280 68790 340
95194 95455 284
60221 62172 335
29581 67386 340
21562 36805 324
18493 93009 351
6290 57617 340
3149 26645 308
67310 69339 312
28448 90096 351
35475 46526 324
41272 84183 351
17505 98855 351
87434 94155 333
38451 64716 340
11157 75138 340
32635 88826 351
50869 56764 340
47251 81536 351
5857 83571 351
42827 96390 351
98699 99229 328
70816 83795 351
1 2001 182
998999 999999 396
1 1001 179
2 1 2
